{
  "annotations": {
    "list": [
      {
        "builtIn": 1,
        "datasource": {
          "type": "datasource",
          "uid": "grafana"
        },
        "enable": true,
        "hide": true,
        "iconColor": "rgba(0, 211, 255, 1)",
        "name": "Annotations & Alerts",
        "target": {
          "limit": 100,
          "matchAny": false,
          "tags": [],
          "type": "dashboard"
        },
        "type": "dashboard"
      }
    ]
  },
  "editable": true,
  "fiscalYearStartMonth": 0,
  "graphTooltip": 0,
  "links": [],
  "liveNow": false,
  "panels": [
    {
      "datasource": {
        "type": "loki",
        "uid": "${logs}"
      },
      "fieldConfig": {
        "defaults": {
          "color": {
            "mode": "palette-classic"
          },
          "custom": {
            "axisCenteredZero": false,
            "axisColorMode": "text",
            "axisLabel": "",
            "axisPlacement": "auto",
            "barAlignment": 0,
            "drawStyle": "bars",
            "fillOpacity": 38,
            "gradientMode": "none",
            "hideFrom": {
              "legend": false,
              "tooltip": false,
              "viz": false
            },
            "lineInterpolation": "linear",
            "lineWidth": 3,
            "pointSize": 5,
            "scaleDistribution": {
              "type": "linear"
            },
            "showPoints": "never",
            "spanNulls": true,
            "stacking": {
              "group": "A",
              "mode": "normal"
            },
            "thresholdsStyle": {
              "mode": "off"
            }
          },
          "mappings": [],
          "thresholds": {
            "mode": "absolute",
            "steps": [
              {
                "color": "green",
                "value": null
              },
              {
                "color": "red",
                "value": 80
              }
            ]
          },
          "unit": "short"
        },
        "overrides": []
      },
      "gridPos": {
        "h": 8,
        "w": 18,
        "x": 0,
        "y": 0
      },
      "id": 6,
      "options": {
        "legend": {
          "calcs": [
            "sum"
          ],
          "displayMode": "list",
          "placement": "right",
          "showLegend": true
        },
        "tooltip": {
          "mode": "multi",
          "sort": "none"
        }
      },
      "pluginVersion": "8.3.4",
      "targets": [
        {
          "datasource": {
            "type": "loki",
            "uid": "${logs}"
          },
          "editorMode": "code",
          "expr": "sum(count_over_time({__name=\"syslog\"}[1m])) by (appname)",
          "legendFormat": "{{appname}}",
          "maxLines": 0,
          "queryType": "range",
          "refId": "A"
        }
      ],
      "title": "gloabl log rate by appname",
      "type": "timeseries"
    },
    {
      "datasource": {
        "type": "loki",
        "uid": "${logs}"
      },
      "fieldConfig": {
        "defaults": {
          "color": {
            "mode": "thresholds"
          },
          "decimals": 0,
          "mappings": [],
          "thresholds": {
            "mode": "absolute",
            "steps": [
              {
                "color": "green",
                "value": null
              }
            ]
          },
          "unit": "logs/min"
        },
        "overrides": []
      },
      "gridPos": {
        "h": 3,
        "w": 3,
        "x": 18,
        "y": 0
      },
      "id": 11,
      "options": {
        "colorMode": "value",
        "graphMode": "none",
        "justifyMode": "center",
        "orientation": "auto",
        "reduceOptions": {
          "calcs": [
            "mean"
          ],
          "fields": "",
          "values": false
        },
        "text": {},
        "textMode": "value"
      },
      "pluginVersion": "9.4.7",
      "targets": [
        {
          "datasource": {
            "type": "loki",
            "uid": "${logs}"
          },
          "editorMode": "code",
          "expr": "sum(count_over_time({__name=\"syslog\"}[1m]))",
          "legendFormat": "",
          "queryType": "instant",
          "refId": "A"
        }
      ],
      "title": "Global Average Log Rate",
      "type": "stat"
    },
    {
      "datasource": {
        "type": "loki",
        "uid": "${logs}"
      },
      "fieldConfig": {
        "defaults": {
          "color": {
            "mode": "thresholds"
          },
          "decimals": 0,
          "mappings": [],
          "thresholds": {
            "mode": "absolute",
            "steps": [
              {
                "color": "green",
                "value": null
              }
            ]
          },
          "unit": "decbytes"
        },
        "overrides": []
      },
      "gridPos": {
        "h": 3,
        "w": 3,
        "x": 21,
        "y": 0
      },
      "id": 16,
      "options": {
        "colorMode": "value",
        "graphMode": "none",
        "justifyMode": "center",
        "orientation": "auto",
        "reduceOptions": {
          "calcs": [
            "lastNotNull"
          ],
          "fields": "",
          "values": false
        },
        "text": {},
        "textMode": "value"
      },
      "pluginVersion": "9.4.7",
      "targets": [
        {
          "datasource": {
            "type": "loki",
            "uid": "${logs}"
          },
          "editorMode": "code",
          "expr": "sum(bytes_over_time({__name=\"syslog\"}[$__range]))",
          "legendFormat": "",
          "queryType": "instant",
          "refId": "A"
        }
      ],
      "title": "Global Average Log Volume",
      "type": "stat"
    },
    {
      "datasource": {
        "type": "loki",
        "uid": "${logs}"
      },
      "fieldConfig": {
        "defaults": {
          "color": {
            "mode": "thresholds"
          },
          "decimals": 2,
          "mappings": [],
          "thresholds": {
            "mode": "absolute",
            "steps": [
              {
                "color": "green",
                "value": null
              }
            ]
          },
          "unit": "logs/min"
        },
        "overrides": []
      },
      "gridPos": {
        "h": 3,
        "w": 3,
        "x": 18,
        "y": 3
      },
      "id": 12,
      "options": {
        "colorMode": "value",
        "graphMode": "none",
        "justifyMode": "center",
        "orientation": "auto",
        "reduceOptions": {
          "calcs": [
            "mean"
          ],
          "fields": "",
          "values": false
        },
        "text": {},
        "textMode": "value"
      },
      "pluginVersion": "9.4.7",
      "targets": [
        {
          "datasource": {
            "type": "loki",
            "uid": "${logs}"
          },
          "expr": "sum(count_over_time({__name=\"syslog\",hostname=\"$host\"}[1m]))",
          "legendFormat": "",
          "refId": "A"
        }
      ],
      "title": "Host Average Log Rate",
      "type": "stat"
    },
    {
      "datasource": {
        "type": "loki",
        "uid": "${logs}"
      },
      "fieldConfig": {
        "defaults": {
          "color": {
            "mode": "thresholds"
          },
          "decimals": 2,
          "mappings": [],
          "thresholds": {
            "mode": "absolute",
            "steps": [
              {
                "color": "green",
                "value": null
              }
            ]
          },
          "unit": "decbytes"
        },
        "overrides": []
      },
      "gridPos": {
        "h": 3,
        "w": 3,
        "x": 21,
        "y": 3
      },
      "id": 17,
      "options": {
        "colorMode": "value",
        "graphMode": "none",
        "justifyMode": "center",
        "orientation": "auto",
        "reduceOptions": {
          "calcs": [
            "lastNotNull"
          ],
          "fields": "",
          "values": false
        },
        "text": {},
        "textMode": "value"
      },
      "pluginVersion": "9.4.7",
      "targets": [
        {
          "datasource": {
            "type": "loki",
            "uid": "${logs}"
          },
          "editorMode": "code",
          "expr": "sum(bytes_over_time({__name=\"syslog\",hostname=\"$host\"}[$__range]))",
          "legendFormat": "",
          "queryType": "instant",
          "refId": "A"
        }
      ],
      "title": "Host Log Volume",
      "type": "stat"
    },
    {
      "datasource": {
        "type": "loki",
        "uid": "${logs}"
      },
      "fieldConfig": {
        "defaults": {
          "color": {
            "mode": "thresholds"
          },
          "decimals": 2,
          "mappings": [],
          "thresholds": {
            "mode": "absolute",
            "steps": [
              {
                "color": "green",
                "value": null
              }
            ]
          },
          "unit": "decbytes"
        },
        "overrides": []
      },
      "gridPos": {
        "h": 3,
        "w": 3,
        "x": 18,
        "y": 6
      },
      "id": 19,
      "options": {
        "colorMode": "value",
        "graphMode": "none",
        "justifyMode": "center",
        "orientation": "auto",
        "reduceOptions": {
          "calcs": [
            "lastNotNull"
          ],
          "fields": "",
          "values": false
        },
        "text": {},
        "textMode": "value"
      },
      "pluginVersion": "9.4.7",
      "targets": [
        {
          "datasource": {
            "type": "loki",
            "uid": "${logs}"
          },
          "editorMode": "code",
          "expr": "sum(bytes_over_time({__name=\"syslog\",appname=\"$appname\"}[$__range]))",
          "legendFormat": "",
          "queryType": "instant",
          "refId": "A"
        }
      ],
      "title": "Appname Log Volume",
      "type": "stat"
    },
    {
      "datasource": {
        "type": "loki",
        "uid": "${logs}"
      },
      "fieldConfig": {
        "defaults": {
          "color": {
            "mode": "thresholds"
          },
          "decimals": 2,
          "mappings": [],
          "thresholds": {
            "mode": "absolute",
            "steps": [
              {
                "color": "green",
                "value": null
              }
            ]
          },
          "unit": "logs/min"
        },
        "overrides": []
      },
      "gridPos": {
        "h": 3,
        "w": 3,
        "x": 21,
        "y": 6
      },
      "id": 18,
      "options": {
        "colorMode": "value",
        "graphMode": "none",
        "justifyMode": "center",
        "orientation": "auto",
        "reduceOptions": {
          "calcs": [
            "mean"
          ],
          "fields": "",
          "values": false
        },
        "text": {},
        "textMode": "value"
      },
      "pluginVersion": "9.4.7",
      "targets": [
        {
          "datasource": {
            "type": "loki",
            "uid": "${logs}"
          },
          "editorMode": "code",
          "expr": "sum(count_over_time({__name=\"syslog\",appname=\"$appname\"}[1m]))",
          "legendFormat": "",
          "queryType": "range",
          "refId": "A"
        }
      ],
      "title": "Appname Average Log Rate",
      "type": "stat"
    },
    {
      "datasource": {
        "type": "loki",
        "uid": "P53E94FA6B1E28789"
      },
      "fieldConfig": {
        "defaults": {
          "color": {
            "mode": "palette-classic"
          },
          "custom": {
            "axisCenteredZero": false,
            "axisColorMode": "text",
            "axisLabel": "",
            "axisPlacement": "auto",
            "barAlignment": 0,
            "drawStyle": "bars",
            "fillOpacity": 100,
            "gradientMode": "none",
            "hideFrom": {
              "legend": false,
              "tooltip": false,
              "viz": false
            },
            "lineInterpolation": "linear",
            "lineWidth": 0,
            "pointSize": 5,
            "scaleDistribution": {
              "type": "linear"
            },
            "showPoints": "never",
            "spanNulls": true,
            "stacking": {
              "group": "A",
              "mode": "normal"
            },
            "thresholdsStyle": {
              "mode": "off"
            }
          },
          "mappings": [],
          "thresholds": {
            "mode": "absolute",
            "steps": [
              {
                "color": "green",
                "value": null
              },
              {
                "color": "red",
                "value": 80
              }
            ]
          },
          "unit": "short"
        },
        "overrides": []
      },
      "gridPos": {
        "h": 14,
        "w": 12,
        "x": 0,
        "y": 8
      },
      "id": 8,
      "options": {
        "legend": {
          "calcs": [],
          "displayMode": "list",
          "placement": "bottom",
          "showLegend": true
        },
        "tooltip": {
          "mode": "multi",
          "sort": "none"
        }
      },
      "pluginVersion": "8.3.4",
      "targets": [
        {
          "datasource": {
            "type": "loki",
            "uid": "P53E94FA6B1E28789"
          },
          "expr": "sum(count_over_time({hostname=\"$host\",__name=\"syslog\"}[1m])) by (appname)",
          "legendFormat": "{{appname}}",
          "refId": "A"
        }
      ],
      "title": "local log rate by appname",
      "type": "timeseries"
    },
    {
      "datasource": {
        "type": "loki",
        "uid": "${logs}"
      },
      "fieldConfig": {
        "defaults": {
          "color": {
            "mode": "palette-classic"
          },
          "custom": {
            "hideFrom": {
              "legend": false,
              "tooltip": false,
              "viz": false
            }
          },
          "mappings": [],
          "unit": "short"
        },
        "overrides": []
      },
      "gridPos": {
        "h": 14,
        "w": 6,
        "x": 12,
        "y": 8
      },
      "id": 13,
      "options": {
        "legend": {
          "displayMode": "list",
          "placement": "right",
          "showLegend": true,
          "values": [
            "value"
          ]
        },
        "pieType": "donut",
        "reduceOptions": {
          "calcs": [
            "lastNotNull"
          ],
          "fields": "",
          "values": true
        },
        "tooltip": {
          "mode": "single",
          "sort": "none"
        }
      },
      "pluginVersion": "8.3.4",
      "targets": [
        {
          "datasource": {
            "type": "loki",
            "uid": "${logs}"
          },
          "editorMode": "code",
          "expr": "sum(count_over_time({hostname=\"$host\",__name=\"syslog\"}[$__range])) by (appname) ",
          "legendFormat": "{{ appname }}",
          "queryType": "instant",
          "refId": "A"
        }
      ],
      "title": "local log count by appname",
      "type": "piechart"
    },
    {
      "datasource": {
        "type": "loki",
        "uid": "${logs}"
      },
      "fieldConfig": {
        "defaults": {
          "color": {
            "mode": "thresholds"
          },
          "decimals": 2,
          "mappings": [],
          "thresholds": {
            "mode": "absolute",
            "steps": [
              {
                "color": "green",
                "value": null
              }
            ]
          },
          "unit": "decbytes"
        },
        "overrides": []
      },
      "gridPos": {
        "h": 3,
        "w": 3,
        "x": 18,
        "y": 9
      },
      "id": 20,
      "options": {
        "colorMode": "value",
        "graphMode": "none",
        "justifyMode": "center",
        "orientation": "auto",
        "reduceOptions": {
          "calcs": [
            "lastNotNull"
          ],
          "fields": "",
          "values": false
        },
        "text": {},
        "textMode": "value"
      },
      "pluginVersion": "9.4.7",
      "targets": [
        {
          "datasource": {
            "type": "loki",
            "uid": "${logs}"
          },
          "editorMode": "code",
          "expr": "sum(bytes_over_time({__name=\"syslog\",hostname=\"$host\",appname=\"$appname\"}[$__range]))",
          "legendFormat": "",
          "queryType": "instant",
          "refId": "A"
        }
      ],
      "title": "Filtered Log Volume",
      "type": "stat"
    },
    {
      "datasource": {
        "type": "loki",
        "uid": "${logs}"
      },
      "fieldConfig": {
        "defaults": {
          "color": {
            "mode": "thresholds"
          },
          "decimals": 2,
          "mappings": [],
          "thresholds": {
            "mode": "absolute",
            "steps": [
              {
                "color": "green",
                "value": null
              }
            ]
          },
          "unit": "logs/min"
        },
        "overrides": []
      },
      "gridPos": {
        "h": 3,
        "w": 3,
        "x": 21,
        "y": 9
      },
      "id": 21,
      "options": {
        "colorMode": "value",
        "graphMode": "none",
        "justifyMode": "center",
        "orientation": "auto",
        "reduceOptions": {
          "calcs": [
            "mean"
          ],
          "fields": "",
          "values": false
        },
        "text": {},
        "textMode": "value"
      },
      "pluginVersion": "9.4.7",
      "targets": [
        {
          "datasource": {
            "type": "loki",
            "uid": "${logs}"
          },
          "editorMode": "code",
          "expr": "sum(count_over_time({__name=\"syslog\",hostname=\"$host\",appname=\"$appname\"}[1m]))",
          "legendFormat": "",
          "queryType": "range",
          "refId": "A"
        }
      ],
      "title": "Filtered Average Log Rate",
      "type": "stat"
    },
    {
      "datasource": {
        "type": "loki",
        "uid": "${logs}"
      },
      "fieldConfig": {
        "defaults": {
          "color": {
            "mode": "palette-classic"
          },
          "custom": {
            "hideFrom": {
              "legend": false,
              "tooltip": false,
              "viz": false
            }
          },
          "mappings": [],
          "unit": "short"
        },
        "overrides": []
      },
      "gridPos": {
        "h": 10,
        "w": 6,
        "x": 18,
        "y": 12
      },
      "id": 14,
      "options": {
        "legend": {
          "displayMode": "list",
          "placement": "right",
          "showLegend": true,
          "values": [
            "value"
          ]
        },
        "pieType": "donut",
        "reduceOptions": {
          "calcs": [
            "sum"
          ],
          "fields": "",
          "values": true
        },
        "tooltip": {
          "mode": "single",
          "sort": "none"
        }
      },
      "pluginVersion": "8.3.4",
      "targets": [
        {
          "datasource": {
            "type": "loki",
            "uid": "${logs}"
          },
          "editorMode": "code",
          "expr": "sum(count_over_time({__name=\"syslog\"}[$__range])) by (appname) ",
          "legendFormat": "{{ appname }}",
          "queryType": "instant",
          "refId": "A"
        }
      ],
      "title": "global log count by appname",
      "type": "piechart"
    },
    {
      "datasource": {
        "type": "loki",
        "uid": "${logs}"
      },
      "gridPos": {
        "h": 14,
        "w": 24,
        "x": 0,
        "y": 22
      },
      "id": 3,
      "options": {
        "dedupStrategy": "none",
        "enableLogDetails": true,
        "prettifyLogMessage": false,
        "showCommonLabels": false,
        "showLabels": false,
        "showTime": true,
        "sortOrder": "Descending",
        "wrapLogMessage": false
      },
      "targets": [
        {
          "datasource": {
            "type": "loki",
            "uid": "${logs}"
          },
          "expr": "{__name=\"syslog\",hostname=\"$host\",appname=\"$appname\"}",
          "refId": "A"
        }
      ],
      "title": "filtered syslog",
      "type": "logs"
    }
  ],
  "refresh": "",
  "revision": 1,
  "schemaVersion": 38,
  "style": "dark",
  "tags": [],
  "templating": {
    "list": [
      {
        "hide": 0,
        "includeAll": false,
        "multi": false,
        "name": "logs",
        "options": [],
        "query": "loki",
        "refresh": 1,
        "regex": "",
        "skipUrlSync": false,
        "type": "datasource"
      },
      {
        "hide": 0,
        "includeAll": false,
        "multi": false,
        "name": "metrics",
        "options": [],
        "query": "prometheus",
        "refresh": 1,
        "regex": "",
        "skipUrlSync": false,
        "type": "datasource"
      },
      {
        "datasource": {
          "type": "loki",
          "uid": "${logs}"
        },
        "definition": "label_values({__name=\"syslog\"},hostname)",
        "hide": 0,
        "includeAll": false,
        "multi": false,
        "name": "host",
        "options": [],
        "query": "label_values({__name=\"syslog\"},hostname)",
        "refresh": 1,
        "regex": "",
        "skipUrlSync": false,
        "sort": 0,
        "type": "query"
      },
      {
        "datasource": {
          "type": "loki",
          "uid": "${logs}"
        },
        "definition": "label_values({__name=\"syslog\",hostname=\"$host\"},appname)",
        "hide": 0,
        "includeAll": false,
        "multi": false,
        "name": "appname",
        "options": [],
        "query": "label_values({__name=\"syslog\",hostname=\"$host\"},appname)",
        "refresh": 1,
        "regex": "",
        "skipUrlSync": false,
        "sort": 0,
        "type": "query"
      }
    ]
  },
  "time": {
    "from": "now-1h",
    "to": "now"
  },
  "timepicker": {},
  "timezone": "",
  "title": "syslog",
  "uid": "ILt16Sb7k",
  "version": 3,
  "weekStart": ""
}